<!--?xml version="1.0" encoding="utf-8"?-->
<!-- Generator: Adobe Illustrator 19.0.1, SVG Export Plug-In . SVG Version: 6.00 Build 0)  -->
<svg version="1.1" id="Layer_1" xmlns="http://www.w3.org/2000/svg" xmlns:xlink="http://www.w3.org/1999/xlink" x="0px" y="0px" viewBox="0 0 250 504" style="" xml:space="preserve">
<style type="text/css">
	.st0{fill:none;stroke:#96C850;stroke-width:4;stroke-miterlimit:10;}
</style>
<g>
	<path class="st0 MTzrrdgf_0" d="M135.2,12.1c0,3.9-2.2,13.8-2.9,19.4c5.5-0.7,15.3-2.9,19.2-2.9c13.4,0,13.4,20.5,0,20.5
		c-3.8,0-13.7-2.2-19.2-2.9c0.7,5.5,2.9,15.4,2.9,19.4c0,1.8-0.3,3.3-0.9,4.6h21.1c0,13.5,6.5,18.2,18.8,18.2l-14.6,78
		c0.4,10.8,4,13.3,15.7,13.3V197h-18.1L184,356.5c12,2.1,12.2,20,1.3,23.3c1.2,6.4,5.1,8.9,13.2,8.9c19.8,1.4,35.2,18.3,35.2,38.3
		v48.6c15.7,1.6,14.8,26.4-1.7,26.4H18c-16.8,0-17.1-24.7-1.7-26.4V427c0-21.1,17.1-38.4,38-38.4c6.3,0,9.4-3.8,10.4-8.8
		c-11-3.4-10.3-21.1,1.4-23.3L92.9,197H74.8v-17.4c11.8,0,15.2-2.5,15.7-13.3l-14.6-78c12.4,0,18.9-4.6,18.9-18.2h21.1
		c-0.6-1.3-1-2.8-1-4.6c0-3.9,2.3-13.8,2.9-19.4c-5.4,0.7-15.3,2.9-19.2,2.9c-13.4,0-13.4-20.5,0-20.5c3.9,0,13.7,2.2,19.2,2.9
		c-0.6-5.5-2.9-15.5-2.9-19.4C114.8-1.4,135.2-1.4,135.2,12.1z"></path>
</g>
<style data-made-with="vivus-instant">.MTzrrdgf_0{stroke-dasharray:1571 1573;stroke-dashoffset:1572;animation:MTzrrdgf_draw 1500ms ease-in-out 0ms forwards;}@keyframes MTzrrdgf_draw{100%{stroke-dashoffset:0;}}@keyframes MTzrrdgf_fade{0%{stroke-opacity:1;}92.98245614035088%{stroke-opacity:1;}100%{stroke-opacity:0;}}</style></svg>
