<!--?xml version="1.0" encoding="utf-8"?-->
<!-- Generator: Adobe Illustrator 19.0.1, SVG Export Plug-In . SVG Version: 6.00 Build 0)  -->
<svg version="1.1" id="Layer_1" xmlns="http://www.w3.org/2000/svg" xmlns:xlink="http://www.w3.org/1999/xlink" x="0px" y="0px" viewBox="0 0 504 504" style="" xml:space="preserve">
<style type="text/css">
	.st0{fill:none;stroke:#96C850;stroke-width:4;stroke-miterlimit:10;}
</style>
<path class="st0 EIBzcqqD_0" d="M217.6,2c-4.7,0.4-8.6,3.7-9.9,8.2l-14.9,52.4c-11.4,3.6-22.4,8.2-32.8,13.7l-47.6-26.5
	c-4.4-2.4-9.9-1.6-13.5,2L51.7,98.8c-3.6,3.6-4.4,9.1-2,13.5l26.5,47.6c-5.5,10.4-10.1,21.4-13.7,32.8l-52.4,14.9
	c-4.9,1.4-8.2,5.9-8.2,11v66.8c0,5.1,3.3,9.6,8.2,11l52.4,14.9c3.6,11.4,8.2,22.4,13.7,32.8l-26.5,47.6c-2.4,4.4-1.6,9.9,2,13.5
	l47.1,47.1c3.6,3.6,9.1,4.4,13.5,2l47.6-26.5c10.4,5.5,21.4,10.1,32.8,13.7l14.9,52.4c1.4,4.9,5.9,8.2,11,8.2h66.8
	c5.1,0,9.6-3.3,11-8.2l14.9-52.4c11.4-3.6,22.4-8.2,32.8-13.7l47.6,26.5c4.4,2.4,9.9,1.6,13.5-2l47.1-47.1c3.6-3.6,4.4-9.1,2-13.5
	l-26.5-47.6c5.5-10.4,10.1-21.4,13.7-32.8l52.4-14.9c4.9-1.4,8.2-5.9,8.2-11v-66.8c0-5.1-3.3-9.6-8.2-11l-52.4-14.9
	c-3.6-11.4-8.2-22.4-13.7-32.8l26.5-47.6c2.4-4.4,1.6-9.9-2-13.5l-47.1-47.1c-3.6-3.6-9.1-4.4-13.5-2l-47.6,26.5
	c-10.4-5.5-21.4-10.1-32.8-13.7l-14.9-52.4c-1.4-4.9-5.9-8.2-11-8.2h-66.8C218.3,2,217.9,2,217.6,2z"></path>
<path class="st0 EIBzcqqD_1" d="M252,172.5c-43.8,0-79.5,35.7-79.5,79.5c0,43.8,35.7,79.5,79.5,79.5s79.5-35.7,79.5-79.5
	C331.5,208.2,295.8,172.5,252,172.5z"></path>
<style data-made-with="vivus-instant">.EIBzcqqD_0{stroke-dasharray:1925 1927;stroke-dashoffset:1926;animation:EIBzcqqD_draw 1500ms ease-in-out 0ms forwards;}.EIBzcqqD_1{stroke-dasharray:500 502;stroke-dashoffset:501;animation:EIBzcqqD_draw 1500ms ease-in-out 0ms forwards;}@keyframes EIBzcqqD_draw{100%{stroke-dashoffset:0;}}@keyframes EIBzcqqD_fade{0%{stroke-opacity:1;}92.98245614035088%{stroke-opacity:1;}100%{stroke-opacity:0;}}</style></svg>
