<?xml version="1.0" encoding="utf-8"?>
<!-- Generator: Adobe Illustrator 17.0.1, SVG Export Plug-In . SVG Version: 6.00 Build 0)  -->
<!DOCTYPE svg PUBLIC "-//W3C//DTD SVG 1.1//EN" "http://www.w3.org/Graphics/SVG/1.1/DTD/svg11.dtd">
<svg version="1.1" id="chess-svg" xmlns="http://www.w3.org/2000/svg" xmlns:xlink="http://www.w3.org/1999/xlink" x="0px" y="0px"
	 width="70px" height="140px" viewBox="0 0 70 140" enable-background="new 0 0 70 140" xml:space="preserve">
<g>
	<defs>
		<rect id="SVGID_1_" x="1.111" width="67.778" height="140"/>
	</defs>
	<clipPath id="SVGID_2_">
		<use xlink:href="#SVGID_1_"  overflow="visible"/>
	</clipPath>
	<path clip-path="url(#SVGID_2_)" fill="none" stroke="#F6AD35" stroke-width="1.1111" stroke-miterlimit="10" d="M37.82,3.375
		c0,1.078-0.616,3.842-0.807,5.376c1.518-0.193,4.254-0.815,5.321-0.815c3.721,0,3.721,5.708,0,5.708
		c-1.067,0-3.803-0.622-5.321-0.815c0.191,1.534,0.807,4.284,0.807,5.376c0,0.497-0.096,0.912-0.26,1.285h5.868
		c0,3.759,1.792,5.058,5.226,5.058l-4.049,21.656c0.123,2.999,1.108,3.69,4.35,3.69v4.823h-5.034l7.455,44.32
		c3.338,0.594,3.392,5.542,0.369,6.468c0.328,1.769,1.423,2.474,3.68,2.474c5.499,0.401,9.781,5.072,9.781,10.628v13.502
		c4.364,0.456,4.118,7.338-0.465,7.338H5.264c-4.678,0-4.747-6.869-0.479-7.338v-13.502c0-5.86,4.747-10.655,10.547-10.655
		c1.751,0,2.599-1.05,2.9-2.446c-3.064-0.94-2.873-5.86,0.397-6.468l7.455-44.32H21.05v-4.823c3.269,0,4.227-0.705,4.35-3.69
		l-4.063-21.656c3.434,0,5.239-1.285,5.239-5.058h5.868c-0.178-0.373-0.274-0.788-0.274-1.285c0-1.092,0.629-3.842,0.807-5.376
		c-1.505,0.193-4.241,0.815-5.321,0.815c-3.721,0-3.721-5.708,0-5.708c1.081,0,3.816,0.622,5.321,0.815
		c-0.178-1.534-0.807-4.298-0.807-5.376C32.171-0.384,37.82-0.384,37.82,3.375z"/>
</g>
</svg>
